<svg xmlns="http://www.w3.org/2000/svg" viewBox="0 0 16 16">
  <!-- keep this first g for design debugging -->
  <g class="hidden" stroke="red" opacity="0.3" fill="none">
    <path d="M0,0 l16,0 l0,16 l-16,0 l0,-16" stroke-width="1"/>
  </g >

  <g stroke-width="1"
     stroke="currentcolor"
     fill="currentcolor"
     stroke-linecap="butt"
     stroke-linejoin="round">
    <path d="M2,5 l0,6 m2,1 l0,-8 m3,-1 l0,10 m3,2 l0,-14"/>
    <path class="arrowLeft" d="M11,8 l3,2.5 l0,-5 z" />
    <path class="arrowRight" d="M14,8 l-3,2.5 l0,-5 z" />
  </g>
</svg>
